,date,city,rent,product
0,2019-01-01,Kayseri,1,1086
1,2019-01-02,Sinop,9,1751
2,2019-01-03,Aksaray,11,1136
3,2019-01-04,Ordu,10,1162
4,2019-01-05,Siirt,6,1526
5,2019-01-06,Burdur,12,1369
6,2019-01-07,İstanbul,12,1915
7,2019-01-08,Ardahan,5,1489
8,2019-01-09,Bartın,9,1541
9,2019-01-10,Bitlis,14,1401
10,2019-01-11,Burdur,8,1691
11,2019-01-12,Burdur,5,1242
12,2019-01-13,Diyarbakır,4,1154
13,2019-01-14,Bilecik,17,1864
14,2019-01-15,Malatya,14,1002
15,2019-01-16,Kütahya,13,1286
16,2019-01-17,Sakarya,9,1162
17,2019-01-18,Gümüşhane,11,1834
18,2019-01-19,Gümüşhane,14,1384
19,2019-01-20,Sivas,11,1707
20,2019-01-21,Tunceli,14,1162
21,2019-01-22,Artvin,12,1546
22,2019-01-23,Malatya,4,1520
23,2019-01-24,Bilecik,6,1702
24,2019-01-25,Elazığ,11,1588
25,2019-01-26,Bingöl,3,1729
26,2019-01-27,Balıkesir,4,1931
27,2019-01-28,Kırıkkale,4,1710
28,2019-01-29,Nevşehir,11,1977
29,2019-01-30,Bitlis,8,1975
30,2019-01-31,Sivas,6,1266
31,2019-02-01,Amasya,8,1813
32,2019-02-02,İzmir,16,1512
33,2019-02-03,Isparta,2,1313
34,2019-02-04,Artvin,17,1274
35,2019-02-05,Trabzon,9,1376
36,2019-02-06,Amasya,14,1028
37,2019-02-07,Çankırı,16,1358
38,2019-02-08,Çankırı,7,1060
39,2019-02-09,Bingöl,8,1406
40,2019-02-10,Amasya,3,1363
41,2019-02-11,Kırıkkale,13,1446
42,2019-02-12,Kahramanmaraş,15,1487
43,2019-02-13,Niğde,14,1801
44,2019-02-14,Sinop,12,1360
45,2019-02-15,Aydın,15,1027
46,2019-02-16,Çorum,11,1156
47,2019-02-17,Tunceli,1,1135
48,2019-02-18,Kayseri,9,1255
49,2019-02-19,Zonguldak,16,1355
50,2019-02-20,Tokat,8,1214
51,2019-02-21,Şanlıurfa,15,1397
52,2019-02-22,Artvin,9,1944
53,2019-02-23,Nevşehir,15,1382
54,2019-02-24,Kars,12,1920
55,2019-02-25,Aksaray,13,1919
56,2019-02-26,Antalya,16,1391
57,2019-02-27,Bursa,9,1584
58,2019-02-28,Balıkesir,12,1196
59,2019-03-01,Kayseri,5,1036
60,2019-03-02,Erzurum,7,1319
61,2019-03-03,Kahramanmaraş,17,1583
62,2019-03-04,Amasya,7,1103
63,2019-03-05,Kahramanmaraş,15,1396
64,2019-03-06,Hatay,16,1094
65,2019-03-07,Çorum,12,1871
66,2019-03-08,Afyon,7,1907
67,2019-03-09,Amasya,6,1771
68,2019-03-10,Van,17,1615
69,2019-03-11,Erzurum,17,1862
70,2019-03-12,Kırşehir,16,1277
71,2019-03-13,Sivas,8,1330
72,2019-03-14,İçel (Mersin),14,1814
73,2019-03-15,Bartın,15,1257
74,2019-03-16,Gümüşhane,2,1903
75,2019-03-17,Burdur,14,1643
76,2019-03-18,Ağrı,9,1944
77,2019-03-19,Mardin,10,1459
78,2019-03-20,Isparta,4,1519
79,2019-03-21,Bartın,11,1943
80,2019-03-22,Balıkesir,2,1071
81,2019-03-23,Manisa,10,1330
82,2019-03-24,Çanakkale,1,1598
83,2019-03-25,Kars,9,1433
84,2019-03-26,Kahramanmaraş,4,1850
85,2019-03-27,Kilis,16,1673
86,2019-03-28,Kırklareli,7,1963
87,2019-03-29,Samsun,5,1854
88,2019-03-30,Bursa,3,1439
89,2019-03-31,Uşak,9,1973
90,2019-04-01,Şırnak,10,1480
91,2019-04-02,Düzce,9,1640
92,2019-04-03,Erzurum,16,1516
93,2019-04-04,Giresun,9,1829
94,2019-04-05,Malatya,10,1493
95,2019-04-06,Trabzon,16,1051
96,2019-04-07,Gaziantep,8,1897
97,2019-04-08,Kars,6,1827
98,2019-04-09,Şanlıurfa,15,1755
99,2019-04-10,Bilecik,10,1537
100,2019-04-11,Bilecik,16,1580
101,2019-04-12,Hatay,17,1677
102,2019-04-13,Yalova,8,1864
103,2019-04-14,Karabük,4,1461
104,2019-04-15,Mardin,2,1253
105,2019-04-16,Kastamonu,2,1793
106,2019-04-17,Kocaeli,4,1029
107,2019-04-18,Hatay,14,1381
108,2019-04-19,Şırnak,7,1382
109,2019-04-20,Sakarya,10,1123
110,2019-04-21,Gümüşhane,12,1568
111,2019-04-22,Muğla,11,1123
112,2019-04-23,Yozgat,3,1885
113,2019-04-24,Gaziantep,2,1864
114,2019-04-25,Karaman,13,1246
115,2019-04-26,Aksaray,3,1432
116,2019-04-27,Sivas,6,1779
117,2019-04-28,Hakkari,16,1554
118,2019-04-29,Sinop,3,1533
119,2019-04-30,Sivas,12,1005
120,2019-05-01,Ardahan,6,1672
121,2019-05-02,Tekirdağ,6,1140
122,2019-05-03,Hatay,6,1727
123,2019-05-04,Batman,6,1152
124,2019-05-05,Kırıkkale,12,1392
125,2019-05-06,Elazığ,3,1140
126,2019-05-07,Muş,1,1699
127,2019-05-08,Şanlıurfa,10,1561
128,2019-05-09,Sakarya,9,1086
129,2019-05-10,Adana,7,1310
130,2019-05-11,Kırklareli,7,1576
131,2019-05-12,Afyon,16,1227
132,2019-05-13,Amasya,14,1131
133,2019-05-14,Hatay,12,1675
134,2019-05-15,Tekirdağ,9,1536
135,2019-05-16,Sivas,13,1324
136,2019-05-17,Bolu,10,1475
137,2019-05-18,Çanakkale,14,1947
138,2019-05-19,Hakkari,15,1828
139,2019-05-20,Rize,6,1331
140,2019-05-21,Aydın,13,1086
141,2019-05-22,Ordu,10,1161
142,2019-05-23,Yalova,4,1153
143,2019-05-24,Eskişehir,9,1690
144,2019-05-25,Osmaniye,9,1448
145,2019-05-26,Burdur,14,1299
146,2019-05-27,Konya,7,1573
147,2019-05-28,Bartın,16,1544
148,2019-05-29,Sinop,1,1407
149,2019-05-30,Ordu,1,1320
150,2019-05-31,Isparta,5,1870
151,2019-06-01,Şırnak,12,1057
152,2019-06-02,İstanbul,14,1316
153,2019-06-03,Zonguldak,9,1581
154,2019-06-04,Yalova,12,1444
155,2019-06-05,Karaman,17,1918
156,2019-06-06,Elazığ,1,1277
157,2019-06-07,Tunceli,14,1246
158,2019-06-08,Gaziantep,8,1201
159,2019-06-09,Rize,1,1384
160,2019-06-10,Ardahan,15,1270
161,2019-06-11,Diyarbakır,12,1040
162,2019-06-12,İstanbul,8,1339
163,2019-06-13,Amasya,17,1362
164,2019-06-14,Sivas,3,1363
165,2019-06-15,Yozgat,5,1893
166,2019-06-16,Osmaniye,10,1139
167,2019-06-17,Kars,16,1946
168,2019-06-18,Sivas,14,1102
169,2019-06-19,Trabzon,17,1584
170,2019-06-20,Konya,16,1348
171,2019-06-21,Kahramanmaraş,2,1138
172,2019-06-22,Kastamonu,14,1523
173,2019-06-23,Isparta,16,1788
174,2019-06-24,Kilis,11,1767
175,2019-06-25,Aydın,11,1949
176,2019-06-26,Çorum,17,1054
177,2019-06-27,Bilecik,7,1885
178,2019-06-28,Muş,5,1075
179,2019-06-29,Yozgat,4,1394
180,2019-06-30,Gaziantep,11,1981
181,2019-07-01,Samsun,8,1008
182,2019-07-02,Hatay,9,1010
183,2019-07-03,Muğla,17,1087
184,2019-07-04,Malatya,7,1445
185,2019-07-05,Malatya,13,1805
186,2019-07-06,Artvin,7,1206
187,2019-07-07,Niğde,15,1323
188,2019-07-08,Şanlıurfa,9,1526
189,2019-07-09,Bayburt,4,1029
190,2019-07-10,Kırşehir,15,1916
191,2019-07-11,Hakkari,13,1744
192,2019-07-12,Siirt,14,1862
193,2019-07-13,Şanlıurfa,9,1989
194,2019-07-14,Bitlis,7,1230
195,2019-07-15,Ardahan,17,1128
196,2019-07-16,Isparta,16,1343
197,2019-07-17,Sakarya,13,1407
198,2019-07-18,Aksaray,13,1832
199,2019-07-19,Şırnak,13,1066
200,2019-07-20,Uşak,2,1986
201,2019-07-21,Kilis,5,1179
202,2019-07-22,Siirt,3,1989
203,2019-07-23,Eskişehir,14,1825
204,2019-07-24,Karabük,15,1847
205,2019-07-25,Antalya,5,1295
206,2019-07-26,Sivas,12,1314
207,2019-07-27,Kars,2,1758
208,2019-07-28,Konya,2,1973
209,2019-07-29,Elazığ,6,1989
210,2019-07-30,Çorum,11,1982
211,2019-07-31,Kayseri,8,1121
212,2019-08-01,Elazığ,15,1776
213,2019-08-02,Kütahya,15,1739
214,2019-08-03,Kırşehir,17,1702
215,2019-08-04,Çankırı,6,1610
216,2019-08-05,İstanbul,15,1234
217,2019-08-06,Iğdır,15,1093
218,2019-08-07,Samsun,12,1071
219,2019-08-08,İstanbul,7,1681
220,2019-08-09,Şanlıurfa,13,1274
221,2019-08-10,Yalova,2,1815
222,2019-08-11,Adana,3,1063
223,2019-08-12,Çankırı,10,1555
224,2019-08-13,Kırşehir,11,1289
225,2019-08-14,İstanbul,11,1981
226,2019-08-15,Van,2,1127
227,2019-08-16,Siirt,13,1170
228,2019-08-17,Samsun,8,1657
229,2019-08-18,Çankırı,15,1684
230,2019-08-19,Denizli,2,1802
231,2019-08-20,Giresun,10,1776
232,2019-08-21,Adana,3,1311
233,2019-08-22,Samsun,10,1277
234,2019-08-23,Malatya,7,1987
235,2019-08-24,Kırşehir,4,1302
236,2019-08-25,Çorum,15,1519
237,2019-08-26,Gaziantep,11,1080
238,2019-08-27,Kars,15,1509
239,2019-08-28,Batman,1,1100
240,2019-08-29,İzmir,11,1861
241,2019-08-30,Artvin,12,1620
242,2019-08-31,Mardin,11,1388
243,2019-09-01,Trabzon,14,1352
244,2019-09-02,Uşak,14,1646
245,2019-09-03,Samsun,3,1194
246,2019-09-04,Adıyaman,2,1965
247,2019-09-05,Kırşehir,2,1605
248,2019-09-06,Trabzon,7,1251
249,2019-09-07,Kayseri,9,1339
250,2019-09-08,Kastamonu,8,1955
251,2019-09-09,Bilecik,8,1893
252,2019-09-10,Karabük,11,1541
253,2019-09-11,Balıkesir,15,1019
254,2019-09-12,Tunceli,2,1492
255,2019-09-13,Çanakkale,7,1595
256,2019-09-14,Tunceli,14,1459
257,2019-09-15,Çanakkale,2,1052
258,2019-09-16,Konya,5,1724
259,2019-09-17,Antalya,14,1476
260,2019-09-18,Ağrı,13,1039
261,2019-09-19,Diyarbakır,8,1020
262,2019-09-20,Erzincan,16,1821
263,2019-09-21,Tunceli,10,1118
264,2019-09-22,İçel (Mersin),6,1456
265,2019-09-23,İzmir,4,1410
266,2019-09-24,Yalova,3,1895
267,2019-09-25,Denizli,16,1548
268,2019-09-26,İzmir,1,1802
269,2019-09-27,Nevşehir,9,1631
270,2019-09-28,Rize,15,1442
271,2019-09-29,Diyarbakır,11,1393
272,2019-09-30,Niğde,14,1822
273,2019-10-01,Gaziantep,11,1211
274,2019-10-02,Kırıkkale,8,1946
275,2019-10-03,Malatya,10,1184
276,2019-10-04,Kırşehir,14,1667
277,2019-10-05,Giresun,11,1810
278,2019-10-06,Ordu,17,1575
279,2019-10-07,Denizli,14,1300
280,2019-10-08,Yalova,17,1267
281,2019-10-09,Sakarya,8,1458
282,2019-10-10,Mardin,12,1586
283,2019-10-11,Diyarbakır,3,1391
284,2019-10-12,Ardahan,12,1307
285,2019-10-13,Edirne,1,1715
286,2019-10-14,Ordu,3,1168
287,2019-10-15,Tokat,8,1272
288,2019-10-16,Manisa,11,1434
289,2019-10-17,Sinop,3,1843
290,2019-10-18,Karaman,2,1953
291,2019-10-19,Samsun,1,1982
292,2019-10-20,Sinop,15,1075
293,2019-10-21,Van,1,1712
294,2019-10-22,Uşak,10,1659
295,2019-10-23,Çanakkale,13,1407
296,2019-10-24,Bolu,12,1106
297,2019-10-25,Kayseri,11,1536
298,2019-10-26,Gaziantep,9,1541
299,2019-10-27,Gümüşhane,5,1152
300,2019-10-28,Kocaeli,1,1299
301,2019-10-29,Bayburt,12,1518
302,2019-10-30,Iğdır,10,1405
303,2019-10-31,Bilecik,4,1025
304,2019-11-01,Gaziantep,14,1072
305,2019-11-02,İzmir,1,1898
306,2019-11-03,Tunceli,5,1777
307,2019-11-04,Nevşehir,10,1805
308,2019-11-05,Kırşehir,10,1474
309,2019-11-06,Ağrı,8,1151
310,2019-11-07,Muğla,7,1865
311,2019-11-08,Samsun,5,1632
312,2019-11-09,Tokat,7,1851
313,2019-11-10,Bursa,11,1894
314,2019-11-11,Kırklareli,3,1321
315,2019-11-12,Mardin,16,1146
316,2019-11-13,Siirt,3,1322
317,2019-11-14,Burdur,1,1873
318,2019-11-15,Burdur,13,1749
319,2019-11-16,Bilecik,7,1341
320,2019-11-17,Bursa,5,1594
321,2019-11-18,Bitlis,4,1746
322,2019-11-19,Tekirdağ,7,1007
323,2019-11-20,Osmaniye,2,1196
324,2019-11-21,Giresun,3,1463
325,2019-11-22,Konya,4,1219
326,2019-11-23,Manisa,9,1697
327,2019-11-24,Adana,11,1610
328,2019-11-25,Trabzon,15,1815
329,2019-11-26,Antalya,14,1482
330,2019-11-27,Sinop,11,1817
331,2019-11-28,Erzincan,7,1102
332,2019-11-29,Kırşehir,2,1119
333,2019-11-30,Kırklareli,14,1649
334,2019-12-01,Antalya,2,1788
335,2019-12-02,Bitlis,16,1771
336,2019-12-03,Niğde,9,1708
337,2019-12-04,Sinop,9,1883
338,2019-12-05,Iğdır,8,1397
339,2019-12-06,Bursa,6,1843
340,2019-12-07,Balıkesir,1,1660
341,2019-12-08,Tunceli,6,1659
342,2019-12-09,Balıkesir,5,1707
343,2019-12-10,Eskişehir,12,1297
344,2019-12-11,Çorum,7,1633
345,2019-12-12,Şanlıurfa,8,1358
346,2019-12-13,Iğdır,11,1196
347,2019-12-14,Ordu,6,1535
348,2019-12-15,Karabük,12,1576
349,2019-12-16,Kırklareli,16,1074
350,2019-12-17,Muş,2,1669
351,2019-12-18,Manisa,11,1019
352,2019-12-19,Niğde,2,1784
353,2019-12-20,Bingöl,9,1644
354,2019-12-21,Kahramanmaraş,6,1278
355,2019-12-22,Amasya,10,1523
356,2019-12-23,Edirne,13,1515
357,2019-12-24,Bayburt,5,1300
358,2019-12-25,Afyon,8,1054
359,2019-12-26,Gümüşhane,4,1734
360,2019-12-27,Adıyaman,3,1359
361,2019-12-28,Diyarbakır,12,1753
362,2019-12-29,Erzincan,11,1197
363,2019-12-30,Niğde,3,1013
